%YAML 1.1
%TAG !u! tag:unity3d.com,2011:
--- !u!29 &1
OcclusionCullingSettings:
  m_ObjectHideFlags: 0
  serializedVersion: 2
  m_OcclusionBakeSettings:
    smallestOccluder: 5
    smallestHole: 0.25
    backfaceThreshold: 100
  m_SceneGUID: 00000000000000000000000000000000
  m_OcclusionCullingData: {fileID: 0}
--- !u!104 &2
RenderSettings:
  m_ObjectHideFlags: 0
  serializedVersion: 9
  m_Fog: 0
  m_FogColor: {r: 0.5, g: 0.5, b: 0.5, a: 1}
  m_FogMode: 3
  m_FogDensity: 0.01
  m_LinearFogStart: 0
  m_LinearFogEnd: 300
  m_AmbientSkyColor: {r: 0.2, g: 0.2, b: 0.2, a: 1}
  m_AmbientEquatorColor: {r: 0.2, g: 0.2, b: 0.2, a: 1}
  m_AmbientGroundColor: {r: 0.2, g: 0.2, b: 0.2, a: 1}
  m_AmbientIntensity: 1
  m_AmbientMode: 3
  m_SubtractiveShadowColor: {r: 0.42, g: 0.478, b: 0.627, a: 1}
  m_SkyboxMaterial: {fileID: 0}
  m_HaloStrength: 0.5
  m_FlareStrength: 1
  m_FlareFadeSpeed: 3
  m_HaloTexture: {fileID: 0}
  m_SpotCookie: {fileID: 10001, guid: 0000000000000000e000000000000000, type: 0}
  m_DefaultReflectionMode: 0
  m_DefaultReflectionResolution: 128
  m_ReflectionBounces: 1
  m_ReflectionIntensity: 1
  m_CustomReflection: {fileID: 0}
  m_Sun: {fileID: 0}
  m_IndirectSpecularColor: {r: 0, g: 0, b: 0, a: 1}
  m_UseRadianceAmbientProbe: 0
--- !u!157 &4
LightmapSettings:
  m_ObjectHideFlags: 0
  serializedVersion: 12
  m_GIWorkflowMode: 1
  m_GISettings:
    serializedVersion: 2
    m_BounceScale: 1
    m_IndirectOutputScale: 1
    m_AlbedoBoost: 1
    m_EnvironmentLightingMode: 0
    m_EnableBakedLightmaps: 1
    m_EnableRealtimeLightmaps: 0
  m_LightmapEditorSettings:
    serializedVersion: 12
    m_Resolution: 1
    m_BakeResolution: 50
    m_AtlasSize: 1024
    m_AO: 1
    m_AOMaxDistance: 1
    m_CompAOExponent: 1
    m_CompAOExponentDirect: 0
    m_ExtractAmbientOcclusion: 0
    m_Padding: 2
    m_LightmapParameters: {fileID: 0}
    m_LightmapsBakeMode: 1
    m_TextureCompression: 0
    m_FinalGather: 0
    m_FinalGatherFiltering: 1
    m_FinalGatherRayCount: 256
    m_ReflectionCompression: 2
    m_MixedBakeMode: 1
    m_BakeBackend: 0
    m_PVRSampling: 1
    m_PVRDirectSampleCount: 32
    m_PVRSampleCount: 512
    m_PVRBounces: 2
    m_PVREnvironmentSampleCount: 512
    m_PVREnvironmentReferencePointCount: 2048
    m_PVRFilteringMode: 0
    m_PVRDenoiserTypeDirect: 0
    m_PVRDenoiserTypeIndirect: 0
    m_PVRDenoiserTypeAO: 0
    m_PVRFilterTypeDirect: 0
    m_PVRFilterTypeIndirect: 0
    m_PVRFilterTypeAO: 0
    m_PVREnvironmentMIS: 0
    m_PVRCulling: 1
    m_PVRFilteringGaussRadiusDirect: 1
    m_PVRFilteringGaussRadiusIndirect: 5
    m_PVRFilteringGaussRadiusAO: 2
    m_PVRFilteringAtrousPositionSigmaDirect: 0.5
    m_PVRFilteringAtrousPositionSigmaIndirect: 2
    m_PVRFilteringAtrousPositionSigmaAO: 1
    m_ExportTrainingData: 0
    m_TrainingDataDestination: TrainingData
    m_LightProbeSampleCountMultiplier: 4
  m_LightingDataAsset: {fileID: 0}
  m_LightingSettings: {fileID: 4890085278179872738, guid: 181bee5d4439f1048918f721ecce676c, type: 2}
--- !u!196 &5
NavMeshSettings:
  serializedVersion: 2
  m_ObjectHideFlags: 0
  m_BuildSettings:
    serializedVersion: 2
    agentTypeID: 0
    agentRadius: 0.5
    agentHeight: 2
    agentSlope: 45
    agentClimb: 0.4
    ledgeDropHeight: 0
    maxJumpAcrossDistance: 0
    minRegionArea: 2
    manualCellSize: 0
    cellSize: 0.16666666
    manualTileSize: 0
    tileSize: 256
    accuratePlacement: 0
    maxJobWorkers: 0
    preserveTilesOutsideBounds: 0
    debug:
      m_Flags: 0
  m_NavMeshData: {fileID: 0}
--- !u!4 &29253094 stripped
Transform:
  m_CorrespondingSourceObject: {fileID: 400000, guid: c2391e8a6bdf5424194b61e41952a40a, type: 3}
  m_PrefabInstance: {fileID: 1712828361}
  m_PrefabAsset: {fileID: 0}
--- !u!1001 &47824324
PrefabInstance:
  m_ObjectHideFlags: 0
  serializedVersion: 2
  m_Modification:
    serializedVersion: 2
    m_TransformParent: {fileID: 1060060855}
    m_Modifications:
    - target: {fileID: 400000, guid: c37b1ccfbc7ed274eb99f9d40e72c4e6, type: 3}
      propertyPath: m_RootOrder
      value: 0
      objectReference: {fileID: 0}
    - target: {fileID: 400000, guid: c37b1ccfbc7ed274eb99f9d40e72c4e6, type: 3}
      propertyPath: m_LocalScale.x
      value: 1
      objectReference: {fileID: 0}
    - target: {fileID: 400000, guid: c37b1ccfbc7ed274eb99f9d40e72c4e6, type: 3}
      propertyPath: m_RootMapOrder
      value: 
      objectReference: {fileID: 0}
    - target: {fileID: 400000, guid: c37b1ccfbc7ed274eb99f9d40e72c4e6, type: 3}
      propertyPath: m_LocalPosition.x
      value: 88.3150177
      objectReference: {fileID: 0}
    - target: {fileID: 400000, guid: c37b1ccfbc7ed274eb99f9d40e72c4e6, type: 3}
      propertyPath: m_LocalPosition.y
      value: 12.7254257
      objectReference: {fileID: 0}
    - target: {fileID: 400000, guid: c37b1ccfbc7ed274eb99f9d40e72c4e6, type: 3}
      propertyPath: m_LocalPosition.z
      value: 8.21988297
      objectReference: {fileID: 0}
    - target: {fileID: 400000, guid: c37b1ccfbc7ed274eb99f9d40e72c4e6, type: 3}
      propertyPath: m_LocalRotation.w
      value: 1
      objectReference: {fileID: 0}
    - target: {fileID: 400000, guid: c37b1ccfbc7ed274eb99f9d40e72c4e6, type: 3}
      propertyPath: m_LocalRotation.x
      value: 0
      objectReference: {fileID: 0}
    - target: {fileID: 400000, guid: c37b1ccfbc7ed274eb99f9d40e72c4e6, type: 3}
      propertyPath: m_LocalRotation.y
      value: 0
      objectReference: {fileID: 0}
    - target: {fileID: 400000, guid: c37b1ccfbc7ed274eb99f9d40e72c4e6, type: 3}
      propertyPath: m_LocalRotation.z
      value: 0
      objectReference: {fileID: 0}
    m_RemovedComponents: []
    m_AddedGameObjects: []
  m_SourcePrefab: {fileID: 100100000, guid: c37b1ccfbc7ed274eb99f9d40e72c4e6, type: 3}
--- !u!1001 &90850080
PrefabInstance:
  m_ObjectHideFlags: 0
  serializedVersion: 2
  m_Modification:
    serializedVersion: 2
    m_TransformParent: {fileID: 1060060855}
    m_Modifications:
    - target: {fileID: 400000, guid: 73ef0b63ffe19f94ab35e4475b345d70, type: 3}
      propertyPath: m_RootOrder
      value: 22
      objectReference: {fileID: 0}
    - target: {fileID: 400000, guid: 73ef0b63ffe19f94ab35e4475b345d70, type: 3}
      propertyPath: m_RootMapOrder
      value: 
      objectReference: {fileID: 0}
    - target: {fileID: 400000, guid: 73ef0b63ffe19f94ab35e4475b345d70, type: 3}
      propertyPath: m_LocalPosition.x
      value: 202.581711
      objectReference: {fileID: 0}
    - target: {fileID: 400000, guid: 73ef0b63ffe19f94ab35e4475b345d70, type: 3}
      propertyPath: m_LocalPosition.y
      value: 12.7254257
      objectReference: {fileID: 0}
    - target: {fileID: 400000, guid: 73ef0b63ffe19f94ab35e4475b345d70, type: 3}
      propertyPath: m_LocalPosition.z
      value: -147.773788
      objectReference: {fileID: 0}
    - target: {fileID: 400000, guid: 73ef0b63ffe19f94ab35e4475b345d70, type: 3}
      propertyPath: m_LocalRotation.w
      value: 1
      objectReference: {fileID: 0}
    - target: {fileID: 400000, guid: 73ef0b63ffe19f94ab35e4475b345d70, type: 3}
      propertyPath: m_LocalRotation.x
      value: 0
      objectReference: {fileID: 0}
    - target: {fileID: 400000, guid: 73ef0b63ffe19f94ab35e4475b345d70, type: 3}
      propertyPath: m_LocalRotation.y
      value: 0
      objectReference: {fileID: 0}
    - target: {fileID: 400000, guid: 73ef0b63ffe19f94ab35e4475b345d70, type: 3}
      propertyPath: m_LocalRotation.z
      value: 0
      objectReference: {fileID: 0}
    m_RemovedComponents: []
    m_AddedGameObjects: []
  m_SourcePrefab: {fileID: 100100000, guid: 73ef0b63ffe19f94ab35e4475b345d70, type: 3}
--- !u!1001 &123596604
PrefabInstance:
  m_ObjectHideFlags: 0
  serializedVersion: 2
  m_Modification:
    serializedVersion: 2
    m_TransformParent: {fileID: 0}
    m_Modifications:
    - target: {fileID: 400010, guid: d0223f77114284b47a0e8b317e71e4dc, type: 3}
      propertyPath: m_RootOrder
      value: 1
      objectReference: {fileID: 0}
    - target: {fileID: 400010, guid: d0223f77114284b47a0e8b317e71e4dc, type: 3}
      propertyPath: m_RootMapOrder
      value: 
      objectReference: {fileID: 0}
    - target: {fileID: 400010, guid: d0223f77114284b47a0e8b317e71e4dc, type: 3}
      propertyPath: m_LocalPosition.x
      value: 0
      objectReference: {fileID: 0}
    - target: {fileID: 400010, guid: d0223f77114284b47a0e8b317e71e4dc, type: 3}
      propertyPath: m_LocalPosition.y
      value: 0
      objectReference: {fileID: 0}
    - target: {fileID: 400010, guid: d0223f77114284b47a0e8b317e71e4dc, type: 3}
      propertyPath: m_LocalPosition.z
      value: 0
      objectReference: {fileID: 0}
    - target: {fileID: 400010, guid: d0223f77114284b47a0e8b317e71e4dc, type: 3}
      propertyPath: m_LocalRotation.w
      value: 1
      objectReference: {fileID: 0}
    - target: {fileID: 400010, guid: d0223f77114284b47a0e8b317e71e4dc, type: 3}
      propertyPath: m_LocalRotation.x
      value: 0
      objectReference: {fileID: 0}
    - target: {fileID: 400010, guid: d0223f77114284b47a0e8b317e71e4dc, type: 3}
      propertyPath: m_LocalRotation.y
      value: 0
      objectReference: {fileID: 0}
    - target: {fileID: 400010, guid: d0223f77114284b47a0e8b317e71e4dc, type: 3}
      propertyPath: m_LocalRotation.z
      value: 0
      objectReference: {fileID: 0}
    m_RemovedComponents: []
    m_AddedGameObjects: []
  m_SourcePrefab: {fileID: 100100000, guid: d0223f77114284b47a0e8b317e71e4dc, type: 3}
--- !u!1001 &137788654
PrefabInstance:
  m_ObjectHideFlags: 0
  serializedVersion: 2
  m_Modification:
    serializedVersion: 2
    m_TransformParent: {fileID: 1060060855}
    m_Modifications:
    - target: {fileID: 400000, guid: 73ef0b63ffe19f94ab35e4475b345d70, type: 3}
      propertyPath: m_RootOrder
      value: 4
      objectReference: {fileID: 0}
    - target: {fileID: 400000, guid: 73ef0b63ffe19f94ab35e4475b345d70, type: 3}
      propertyPath: m_RootMapOrder
      value: 
      objectReference: {fileID: 0}
    - target: {fileID: 400000, guid: 73ef0b63ffe19f94ab35e4475b345d70, type: 3}
      propertyPath: m_LocalPosition.x
      value: 30.7786674
      objectReference: {fileID: 0}
    - target: {fileID: 400000, guid: 73ef0b63ffe19f94ab35e4475b345d70, type: 3}
      propertyPath: m_LocalPosition.y
      value: 12.7254257
      objectReference: {fileID: 0}
    - target: {fileID: 400000, guid: 73ef0b63ffe19f94ab35e4475b345d70, type: 3}
      propertyPath: m_LocalPosition.z
      value: -198.19873
      objectReference: {fileID: 0}
    - target: {fileID: 400000, guid: 73ef0b63ffe19f94ab35e4475b345d70, type: 3}
      propertyPath: m_LocalRotation.w
      value: 1
      objectReference: {fileID: 0}
    - target: {fileID: 400000, guid: 73ef0b63ffe19f94ab35e4475b345d70, type: 3}
      propertyPath: m_LocalRotation.x
      value: 0
      objectReference: {fileID: 0}
    - target: {fileID: 400000, guid: 73ef0b63ffe19f94ab35e4475b345d70, type: 3}
      propertyPath: m_LocalRotation.y
      value: 0
      objectReference: {fileID: 0}
    - target: {fileID: 400000, guid: 73ef0b63ffe19f94ab35e4475b345d70, type: 3}
      propertyPath: m_LocalRotation.z
      value: 0
      objectReference: {fileID: 0}
    m_RemovedComponents: []
    m_AddedGameObjects: []
  m_SourcePrefab: {fileID: 100100000, guid: 73ef0b63ffe19f94ab35e4475b345d70, type: 3}
--- !u!4 &150358997 stripped
Transform:
  m_CorrespondingSourceObject: {fileID: 400000, guid: c37b1ccfbc7ed274eb99f9d40e72c4e6, type: 3}
  m_PrefabInstance: {fileID: 2133336824}
  m_PrefabAsset: {fileID: 0}
--- !u!1001 &257926931
PrefabInstance:
  m_ObjectHideFlags: 0
  serializedVersion: 2
  m_Modification:
    serializedVersion: 2
    m_TransformParent: {fileID: 1060060855}
    m_Modifications:
    - target: {fileID: 400000, guid: 2df72ec125264584faa40cb1beef0481, type: 3}
      propertyPath: m_RootOrder
      value: 2
      objectReference: {fileID: 0}
    - target: {fileID: 400000, guid: 2df72ec125264584faa40cb1beef0481, type: 3}
      propertyPath: m_RootMapOrder
      value: 
      objectReference: {fileID: 0}
    - target: {fileID: 400000, guid: 2df72ec125264584faa40cb1beef0481, type: 3}
      propertyPath: m_LocalPosition.x
      value: -19.7842083
      objectReference: {fileID: 0}
    - target: {fileID: 400000, guid: 2df72ec125264584faa40cb1beef0481, type: 3}
      propertyPath: m_LocalPosition.y
      value: 12.7254257
      objectReference: {fileID: 0}
    - target: {fileID: 400000, guid: 2df72ec125264584faa40cb1beef0481, type: 3}
      propertyPath: m_LocalPosition.z
      value: -156.58345
      objectReference: {fileID: 0}
    - target: {fileID: 400000, guid: 2df72ec125264584faa40cb1beef0481, type: 3}
      propertyPath: m_LocalRotation.w
      value: 1
      objectReference: {fileID: 0}
    - target: {fileID: 400000, guid: 2df72ec125264584faa40cb1beef0481, type: 3}
      propertyPath: m_LocalRotation.x
      value: 0
      objectReference: {fileID: 0}
    - target: {fileID: 400000, guid: 2df72ec125264584faa40cb1beef0481, type: 3}
      propertyPath: m_LocalRotation.y
      value: 0
      objectReference: {fileID: 0}
    - target: {fileID: 400000, guid: 2df72ec125264584faa40cb1beef0481, type: 3}
      propertyPath: m_LocalRotation.z
      value: 0
      objectReference: {fileID: 0}
    m_RemovedComponents: []
    m_AddedGameObjects: []
  m_SourcePrefab: {fileID: 100100000, guid: 2df72ec125264584faa40cb1beef0481, type: 3}
--- !u!1001 &281977287
PrefabInstance:
  m_ObjectHideFlags: 0
  serializedVersion: 2
  m_Modification:
    serializedVersion: 2
    m_TransformParent: {fileID: 1060060855}
    m_Modifications:
    - target: {fileID: 400000, guid: 73ef0b63ffe19f94ab35e4475b345d70, type: 3}
      propertyPath: m_RootOrder
      value: 18
      objectReference: {fileID: 0}
    - target: {fileID: 400000, guid: 73ef0b63ffe19f94ab35e4475b345d70, type: 3}
      propertyPath: m_RootMapOrder
      value: 
      objectReference: {fileID: 0}
    - target: {fileID: 400000, guid: 73ef0b63ffe19f94ab35e4475b345d70, type: 3}
      propertyPath: m_LocalPosition.x
      value: -278.202667
      objectReference: {fileID: 0}
    - target: {fileID: 400000, guid: 73ef0b63ffe19f94ab35e4475b345d70, type: 3}
      propertyPath: m_LocalPosition.y
      value: 12.7254257
      objectReference: {fileID: 0}
    - target: {fileID: 400000, guid: 73ef0b63ffe19f94ab35e4475b345d70, type: 3}
      propertyPath: m_LocalPosition.z
      value: -2.68444061
      objectReference: {fileID: 0}
    - target: {fileID: 400000, guid: 73ef0b63ffe19f94ab35e4475b345d70, type: 3}
      propertyPath: m_LocalRotation.w
      value: 1
      objectReference: {fileID: 0}
    - target: {fileID: 400000, guid: 73ef0b63ffe19f94ab35e4475b345d70, type: 3}
      propertyPath: m_LocalRotation.x
      value: 0
      objectReference: {fileID: 0}
    - target: {fileID: 400000, guid: 73ef0b63ffe19f94ab35e4475b345d70, type: 3}
      propertyPath: m_LocalRotation.y
      value: 0
      objectReference: {fileID: 0}
    - target: {fileID: 400000, guid: 73ef0b63ffe19f94ab35e4475b345d70, type: 3}
      propertyPath: m_LocalRotation.z
      value: 0
      objectReference: {fileID: 0}
    m_RemovedComponents: []
    m_AddedGameObjects: []
  m_SourcePrefab: {fileID: 100100000, guid: 73ef0b63ffe19f94ab35e4475b345d70, type: 3}
--- !u!4 &309633017 stripped
Transform:
  m_CorrespondingSourceObject: {fileID: 400000, guid: 73ef0b63ffe19f94ab35e4475b345d70, type: 3}
  m_PrefabInstance: {fileID: 408419002}
  m_PrefabAsset: {fileID: 0}
--- !u!1001 &317509716
PrefabInstance:
  m_ObjectHideFlags: 0
  serializedVersion: 2
  m_Modification:
    serializedVersion: 2
    m_TransformParent: {fileID: 1060060855}
    m_Modifications:
    - target: {fileID: 400000, guid: 2df72ec125264584faa40cb1beef0481, type: 3}
      propertyPath: m_RootOrder
      value: 23
      objectReference: {fileID: 0}
    - target: {fileID: 400000, guid: 2df72ec125264584faa40cb1beef0481, type: 3}
      propertyPath: m_RootMapOrder
      value: 
      objectReference: {fileID: 0}
    - target: {fileID: 400000, guid: 2df72ec125264584faa40cb1beef0481, type: 3}
      propertyPath: m_LocalPosition.x
      value: 214.383255
      objectReference: {fileID: 0}
    - target: {fileID: 400000, guid: 2df72ec125264584faa40cb1beef0481, type: 3}
      propertyPath: m_LocalPosition.y
      value: 12.7254257
      objectReference: {fileID: 0}
    - target: {fileID: 400000, guid: 2df72ec125264584faa40cb1beef0481, type: 3}
      propertyPath: m_LocalPosition.z
      value: 73.9122925
      objectReference: {fileID: 0}
    - target: {fileID: 400000, guid: 2df72ec125264584faa40cb1beef0481, type: 3}
      propertyPath: m_LocalRotation.w
      value: 1
      objectReference: {fileID: 0}
    - target: {fileID: 400000, guid: 2df72ec125264584faa40cb1beef0481, type: 3}
      propertyPath: m_LocalRotation.x
      value: 0
      objectReference: {fileID: 0}
    - target: {fileID: 400000, guid: 2df72ec125264584faa40cb1beef0481, type: 3}
      propertyPath: m_LocalRotation.y
      value: 0
      objectReference: {fileID: 0}
    - target: {fileID: 400000, guid: 2df72ec125264584faa40cb1beef0481, type: 3}
      propertyPath: m_LocalRotation.z
      value: 0
      objectReference: {fileID: 0}
    m_RemovedComponents: []
    m_AddedGameObjects: []
  m_SourcePrefab: {fileID: 100100000, guid: 2df72ec125264584faa40cb1beef0481, type: 3}
--- !u!4 &361889648 stripped
Transform:
  m_CorrespondingSourceObject: {fileID: 400000, guid: 2df72ec125264584faa40cb1beef0481, type: 3}
  m_PrefabInstance: {fileID: 2098064291}
  m_PrefabAsset: {fileID: 0}
--- !u!4 &384766342 stripped
Transform:
  m_CorrespondingSourceObject: {fileID: 400000, guid: 420bde364644a314396dc8ed24ee99d6, type: 3}
  m_PrefabInstance: {fileID: 563439511}
  m_PrefabAsset: {fileID: 0}
--- !u!1001 &408419002
PrefabInstance:
  m_ObjectHideFlags: 0
  serializedVersion: 2
  m_Modification:
    serializedVersion: 2
    m_TransformParent: {fileID: 1060060855}
    m_Modifications:
    - target: {fileID: 400000, guid: 73ef0b63ffe19f94ab35e4475b345d70, type: 3}
      propertyPath: m_RootOrder
      value: 21
      objectReference: {fileID: 0}
    - target: {fileID: 400000, guid: 73ef0b63ffe19f94ab35e4475b345d70, type: 3}
      propertyPath: m_RootMapOrder
      value: 
      objectReference: {fileID: 0}
    - target: {fileID: 400000, guid: 73ef0b63ffe19f94ab35e4475b345d70, type: 3}
      propertyPath: m_LocalPosition.x
      value: 202.581711
      objectReference: {fileID: 0}
    - target: {fileID: 400000, guid: 73ef0b63ffe19f94ab35e4475b345d70, type: 3}
      propertyPath: m_LocalPosition.y
      value: 12.7254257
      objectReference: {fileID: 0}
    - target: {fileID: 400000, guid: 73ef0b63ffe19f94ab35e4475b345d70, type: 3}
      propertyPath: m_LocalPosition.z
      value: 115.996658
      objectReference: {fileID: 0}
    - target: {fileID: 400000, guid: 73ef0b63ffe19f94ab35e4475b345d70, type: 3}
      propertyPath: m_LocalRotation.w
      value: 1
      objectReference: {fileID: 0}
    - target: {fileID: 400000, guid: 73ef0b63ffe19f94ab35e4475b345d70, type: 3}
      propertyPath: m_LocalRotation.x
      value: 0
      objectReference: {fileID: 0}
    - target: {fileID: 400000, guid: 73ef0b63ffe19f94ab35e4475b345d70, type: 3}
      propertyPath: m_LocalRotation.y
      value: 0
      objectReference: {fileID: 0}
    - target: {fileID: 400000, guid: 73ef0b63ffe19f94ab35e4475b345d70, type: 3}
      propertyPath: m_LocalRotation.z
      value: 0
      objectReference: {fileID: 0}
    m_RemovedComponents: []
    m_AddedGameObjects: []
  m_SourcePrefab: {fileID: 100100000, guid: 73ef0b63ffe19f94ab35e4475b345d70, type: 3}
--- !u!1001 &459596704
PrefabInstance:
  m_ObjectHideFlags: 0
  serializedVersion: 2
  m_Modification:
    serializedVersion: 2
    m_TransformParent: {fileID: 1060060855}
    m_Modifications:
    - target: {fileID: 400000, guid: c37b1ccfbc7ed274eb99f9d40e72c4e6, type: 3}
      propertyPath: m_RootOrder
      value: 5
      objectReference: {fileID: 0}
    - target: {fileID: 400000, guid: c37b1ccfbc7ed274eb99f9d40e72c4e6, type: 3}
      propertyPath: m_RootMapOrder
      value: 
      objectReference: {fileID: 0}
    - target: {fileID: 400000, guid: c37b1ccfbc7ed274eb99f9d40e72c4e6, type: 3}
      propertyPath: m_LocalPosition.x
      value: 29.2261353
      objectReference: {fileID: 0}
    - target: {fileID: 400000, guid: c37b1ccfbc7ed274eb99f9d40e72c4e6, type: 3}
      propertyPath: m_LocalPosition.y
      value: 12.7254257
      objectReference: {fileID: 0}
    - target: {fileID: 400000, guid: c37b1ccfbc7ed274eb99f9d40e72c4e6, type: 3}
      propertyPath: m_LocalPosition.z
      value: -155.028778
      objectReference: {fileID: 0}
    - target: {fileID: 400000, guid: c37b1ccfbc7ed274eb99f9d40e72c4e6, type: 3}
      propertyPath: m_LocalRotation.w
      value: 1
      objectReference: {fileID: 0}
    - target: {fileID: 400000, guid: c37b1ccfbc7ed274eb99f9d40e72c4e6, type: 3}
      propertyPath: m_LocalRotation.x
      value: 0
      objectReference: {fileID: 0}
    - target: {fileID: 400000, guid: c37b1ccfbc7ed274eb99f9d40e72c4e6, type: 3}
      propertyPath: m_LocalRotation.y
      value: 0
      objectReference: {fileID: 0}
    - target: {fileID: 400000, guid: c37b1ccfbc7ed274eb99f9d40e72c4e6, type: 3}
      propertyPath: m_LocalRotation.z
      value: 0
      objectReference: {fileID: 0}
    m_RemovedComponents: []
    m_AddedGameObjects: []
  m_SourcePrefab: {fileID: 100100000, guid: c37b1ccfbc7ed274eb99f9d40e72c4e6, type: 3}
--- !u!4 &465891834 stripped
Transform:
  m_CorrespondingSourceObject: {fileID: 400000, guid: c37b1ccfbc7ed274eb99f9d40e72c4e6, type: 3}
  m_PrefabInstance: {fileID: 1980259559}
  m_PrefabAsset: {fileID: 0}
--- !u!4 &557095946 stripped
Transform:
  m_CorrespondingSourceObject: {fileID: 400000, guid: 73ef0b63ffe19f94ab35e4475b345d70, type: 3}
  m_PrefabInstance: {fileID: 281977287}
  m_PrefabAsset: {fileID: 0}
--- !u!1001 &563439511
PrefabInstance:
  m_ObjectHideFlags: 0
  serializedVersion: 2
  m_Modification:
    serializedVersion: 2
    m_TransformParent: {fileID: 1060060855}
    m_Modifications:
    - target: {fileID: 400000, guid: 420bde364644a314396dc8ed24ee99d6, type: 3}
      propertyPath: m_RootOrder
      value: 24
      objectReference: {fileID: 0}
    - target: {fileID: 400000, guid: 420bde364644a314396dc8ed24ee99d6, type: 3}
      propertyPath: m_RootMapOrder
      value: 
      objectReference: {fileID: 0}
    - target: {fileID: 400000, guid: 420bde364644a314396dc8ed24ee99d6, type: 3}
      propertyPath: m_LocalPosition.x
      value: -240.809372
      objectReference: {fileID: 0}
    - target: {fileID: 400000, guid: 420bde364644a314396dc8ed24ee99d6, type: 3}
      propertyPath: m_LocalPosition.y
      value: 12.7254257
      objectReference: {fileID: 0}
    - target: {fileID: 400000, guid: 420bde364644a314396dc8ed24ee99d6, type: 3}
      propertyPath: m_LocalPosition.z
      value: -111.189438
      objectReference: {fileID: 0}
    - target: {fileID: 400000, guid: 420bde364644a314396dc8ed24ee99d6, type: 3}
      propertyPath: m_LocalRotation.w
      value: 1
      objectReference: {fileID: 0}
    - target: {fileID: 400000, guid: 420bde364644a314396dc8ed24ee99d6, type: 3}
      propertyPath: m_LocalRotation.x
      value: 0
      objectReference: {fileID: 0}
    - target: {fileID: 400000, guid: 420bde364644a314396dc8ed24ee99d6, type: 3}
      propertyPath: m_LocalRotation.y
      value: 0
      objectReference: {fileID: 0}
    - target: {fileID: 400000, guid: 420bde364644a314396dc8ed24ee99d6, type: 3}
      propertyPath: m_LocalRotation.z
      value: 0
      objectReference: {fileID: 0}
    m_RemovedComponents: []
    m_AddedGameObjects: []
  m_SourcePrefab: {fileID: 100100000, guid: 420bde364644a314396dc8ed24ee99d6, type: 3}
--- !u!4 &722858954 stripped
Transform:
  m_CorrespondingSourceObject: {fileID: 400000, guid: c37b1ccfbc7ed274eb99f9d40e72c4e6, type: 3}
  m_PrefabInstance: {fileID: 47824324}
  m_PrefabAsset: {fileID: 0}
--- !u!4 &826982205 stripped
Transform:
  m_CorrespondingSourceObject: {fileID: 400000, guid: 2df72ec125264584faa40cb1beef0481, type: 3}
  m_PrefabInstance: {fileID: 317509716}
  m_PrefabAsset: {fileID: 0}
--- !u!4 &835939016 stripped
Transform:
  m_CorrespondingSourceObject: {fileID: 400000, guid: c37b1ccfbc7ed274eb99f9d40e72c4e6, type: 3}
  m_PrefabInstance: {fileID: 459596704}
  m_PrefabAsset: {fileID: 0}
--- !u!4 &840851416 stripped
Transform:
  m_CorrespondingSourceObject: {fileID: 400000, guid: c2391e8a6bdf5424194b61e41952a40a, type: 3}
  m_PrefabInstance: {fileID: 1181166048}
  m_PrefabAsset: {fileID: 0}
--- !u!4 &884195474 stripped
Transform:
  m_CorrespondingSourceObject: {fileID: 400000, guid: 2df72ec125264584faa40cb1beef0481, type: 3}
  m_PrefabInstance: {fileID: 1938014849}
  m_PrefabAsset: {fileID: 0}
--- !u!4 &904055273 stripped
Transform:
  m_CorrespondingSourceObject: {fileID: 400000, guid: 2df72ec125264584faa40cb1beef0481, type: 3}
  m_PrefabInstance: {fileID: 1934202818}
  m_PrefabAsset: {fileID: 0}
--- !u!1001 &918009634
PrefabInstance:
  m_ObjectHideFlags: 0
  serializedVersion: 2
  m_Modification:
    serializedVersion: 2
    m_TransformParent: {fileID: 1060060855}
    m_Modifications:
    - target: {fileID: 400000, guid: c2391e8a6bdf5424194b61e41952a40a, type: 3}
      propertyPath: m_RootOrder
      value: 3
      objectReference: {fileID: 0}
    - target: {fileID: 400000, guid: c2391e8a6bdf5424194b61e41952a40a, type: 3}
      propertyPath: m_RootMapOrder
      value: 
      objectReference: {fileID: 0}
    - target: {fileID: 400000, guid: c2391e8a6bdf5424194b61e41952a40a, type: 3}
      propertyPath: m_LocalPosition.x
      value: 12.5341482
      objectReference: {fileID: 0}
    - target: {fileID: 400000, guid: c2391e8a6bdf5424194b61e41952a40a, type: 3}
      propertyPath: m_LocalPosition.y
      value: 12.7254257
      objectReference: {fileID: 0}
    - target: {fileID: 400000, guid: c2391e8a6bdf5424194b61e41952a40a, type: 3}
      propertyPath: m_LocalPosition.z
      value: -34.3067589
      objectReference: {fileID: 0}
    - target: {fileID: 400000, guid: c2391e8a6bdf5424194b61e41952a40a, type: 3}
      propertyPath: m_LocalRotation.w
      value: 1
      objectReference: {fileID: 0}
    - target: {fileID: 400000, guid: c2391e8a6bdf5424194b61e41952a40a, type: 3}
      propertyPath: m_LocalRotation.x
      value: 0
      objectReference: {fileID: 0}
    - target: {fileID: 400000, guid: c2391e8a6bdf5424194b61e41952a40a, type: 3}
      propertyPath: m_LocalRotation.y
      value: 0
      objectReference: {fileID: 0}
    - target: {fileID: 400000, guid: c2391e8a6bdf5424194b61e41952a40a, type: 3}
      propertyPath: m_LocalRotation.z
      value: 0
      objectReference: {fileID: 0}
    m_RemovedComponents: []
    m_AddedGameObjects: []
  m_SourcePrefab: {fileID: 100100000, guid: c2391e8a6bdf5424194b61e41952a40a, type: 3}
--- !u!1 &1060060854
GameObject:
  m_ObjectHideFlags: 0
  m_CorrespondingSourceObject: {fileID: 0}
  m_PrefabInstance: {fileID: 0}
  m_PrefabAsset: {fileID: 0}
  serializedVersion: 6
  m_Component:
  - component: {fileID: 1060060855}
  m_Layer: 0
  m_Name: Clouds
  m_TagString: Untagged
  m_Icon: {fileID: 0}
  m_NavMeshLayer: 0
  m_StaticEditorFlags: 0
  m_IsActive: 1
--- !u!4 &1060060855
Transform:
  m_ObjectHideFlags: 0
  m_CorrespondingSourceObject: {fileID: 0}
  m_PrefabInstance: {fileID: 0}
  m_PrefabAsset: {fileID: 0}
  m_GameObject: {fileID: 1060060854}
  m_LocalRotation: {x: 0, y: 0, z: 0, w: 1}
  m_LocalPosition: {x: 34.606983, y: 24.002495, z: 10.613728}
  m_LocalScale: {x: 1, y: 1, z: 1}
  m_ConstrainProportionsScale: 0
  m_Children:
  - {fileID: 722858954}
  - {fileID: 29253094}
  - {fileID: 1108104050}
  - {fileID: 2045703863}
  - {fileID: 1132235395}
  - {fileID: 835939016}
  - {fileID: 1776389595}
  - {fileID: 1903391692}
  - {fileID: 884195474}
  - {fileID: 1803785030}
  - {fileID: 840851416}
  - {fileID: 465891834}
  - {fileID: 1475644166}
  - {fileID: 1176931896}
  - {fileID: 904055273}
  - {fileID: 361889648}
  - {fileID: 150358997}
  - {fileID: 1320198994}
  - {fileID: 557095946}
  - {fileID: 1480057350}
  - {fileID: 1321658256}
  - {fileID: 309633017}
  - {fileID: 1718518675}
  - {fileID: 826982205}
  - {fileID: 384766342}
  m_Father: {fileID: 0}
  m_RootOrder: 2
  m_LocalEulerAnglesHint: {x: 0, y: 0, z: 0}
--- !u!4 &1108104050 stripped
Transform:
  m_CorrespondingSourceObject: {fileID: 400000, guid: 2df72ec125264584faa40cb1beef0481, type: 3}
  m_PrefabInstance: {fileID: 257926931}
  m_PrefabAsset: {fileID: 0}
--- !u!1001 &1118490807
PrefabInstance:
  m_ObjectHideFlags: 0
  serializedVersion: 2
  m_Modification:
    serializedVersion: 2
    m_TransformParent: {fileID: 1060060855}
    m_Modifications:
    - target: {fileID: 400000, guid: c2391e8a6bdf5424194b61e41952a40a, type: 3}
      propertyPath: m_RootOrder
      value: 12
      objectReference: {fileID: 0}
    - target: {fileID: 400000, guid: c2391e8a6bdf5424194b61e41952a40a, type: 3}
      propertyPath: m_RootMapOrder
      value: 
      objectReference: {fileID: 0}
    - target: {fileID: 400000, guid: c2391e8a6bdf5424194b61e41952a40a, type: 3}
      propertyPath: m_LocalPosition.x
      value: 4.59239721
      objectReference: {fileID: 0}
    - target: {fileID: 400000, guid: c2391e8a6bdf5424194b61e41952a40a, type: 3}
      propertyPath: m_LocalPosition.y
      value: 12.7254257
      objectReference: {fileID: 0}
    - target: {fileID: 400000, guid: c2391e8a6bdf5424194b61e41952a40a, type: 3}
      propertyPath: m_LocalPosition.z
      value: -8.70029736
      objectReference: {fileID: 0}
    - target: {fileID: 400000, guid: c2391e8a6bdf5424194b61e41952a40a, type: 3}
      propertyPath: m_LocalRotation.w
      value: 1
      objectReference: {fileID: 0}
    - target: {fileID: 400000, guid: c2391e8a6bdf5424194b61e41952a40a, type: 3}
      propertyPath: m_LocalRotation.x
      value: 0
      objectReference: {fileID: 0}
    - target: {fileID: 400000, guid: c2391e8a6bdf5424194b61e41952a40a, type: 3}
      propertyPath: m_LocalRotation.y
      value: 0
      objectReference: {fileID: 0}
    - target: {fileID: 400000, guid: c2391e8a6bdf5424194b61e41952a40a, type: 3}
      propertyPath: m_LocalRotation.z
      value: 0
      objectReference: {fileID: 0}
    m_RemovedComponents: []
    m_AddedGameObjects: []
  m_SourcePrefab: {fileID: 100100000, guid: c2391e8a6bdf5424194b61e41952a40a, type: 3}
--- !u!4 &1132235395 stripped
Transform:
  m_CorrespondingSourceObject: {fileID: 400000, guid: 73ef0b63ffe19f94ab35e4475b345d70, type: 3}
  m_PrefabInstance: {fileID: 137788654}
  m_PrefabAsset: {fileID: 0}
--- !u!4 &1176931896 stripped
Transform:
  m_CorrespondingSourceObject: {fileID: 400000, guid: 420bde364644a314396dc8ed24ee99d6, type: 3}
  m_PrefabInstance: {fileID: 1558837210}
  m_PrefabAsset: {fileID: 0}
--- !u!1001 &1181166048
PrefabInstance:
  m_ObjectHideFlags: 0
  serializedVersion: 2
  m_Modification:
    serializedVersion: 2
    m_TransformParent: {fileID: 1060060855}
    m_Modifications:
    - target: {fileID: 400000, guid: c2391e8a6bdf5424194b61e41952a40a, type: 3}
      propertyPath: m_RootOrder
      value: 10
      objectReference: {fileID: 0}
    - target: {fileID: 400000, guid: c2391e8a6bdf5424194b61e41952a40a, type: 3}
      propertyPath: m_RootMapOrder
      value: 
      objectReference: {fileID: 0}
    - target: {fileID: 400000, guid: c2391e8a6bdf5424194b61e41952a40a, type: 3}
      propertyPath: m_LocalPosition.x
      value: 4.20944691
      objectReference: {fileID: 0}
    - target: {fileID: 400000, guid: c2391e8a6bdf5424194b61e41952a40a, type: 3}
      propertyPath: m_LocalPosition.y
      value: 12.7254257
      objectReference: {fileID: 0}
    - target: {fileID: 400000, guid: c2391e8a6bdf5424194b61e41952a40a, type: 3}
      propertyPath: m_LocalPosition.z
      value: 6.27078342
      objectReference: {fileID: 0}
    - target: {fileID: 400000, guid: c2391e8a6bdf5424194b61e41952a40a, type: 3}
      propertyPath: m_LocalRotation.w
      value: 1
      objectReference: {fileID: 0}
    - target: {fileID: 400000, guid: c2391e8a6bdf5424194b61e41952a40a, type: 3}
      propertyPath: m_LocalRotation.x
      value: 0
      objectReference: {fileID: 0}
    - target: {fileID: 400000, guid: c2391e8a6bdf5424194b61e41952a40a, type: 3}
      propertyPath: m_LocalRotation.y
      value: 0
      objectReference: {fileID: 0}
    - target: {fileID: 400000, guid: c2391e8a6bdf5424194b61e41952a40a, type: 3}
      propertyPath: m_LocalRotation.z
      value: 0
      objectReference: {fileID: 0}
    m_RemovedComponents: []
    m_AddedGameObjects: []
  m_SourcePrefab: {fileID: 100100000, guid: c2391e8a6bdf5424194b61e41952a40a, type: 3}
--- !u!1 &1231063494
GameObject:
  m_ObjectHideFlags: 0
  m_CorrespondingSourceObject: {fileID: 0}
  m_PrefabInstance: {fileID: 0}
  m_PrefabAsset: {fileID: 0}
  serializedVersion: 6
  m_Component:
  - component: {fileID: 1231063499}
  - component: {fileID: 1231063498}
  - component: {fileID: 1231063496}
  - component: {fileID: 1231063495}
  m_Layer: 0
  m_Name: Main Camera
  m_TagString: MainCamera
  m_Icon: {fileID: 0}
  m_NavMeshLayer: 0
  m_StaticEditorFlags: 0
  m_IsActive: 1
--- !u!81 &1231063495
AudioListener:
  m_ObjectHideFlags: 0
  m_CorrespondingSourceObject: {fileID: 0}
  m_PrefabInstance: {fileID: 0}
  m_PrefabAsset: {fileID: 0}
  m_GameObject: {fileID: 1231063494}
  m_Enabled: 1
--- !u!124 &1231063496
Behaviour:
  m_ObjectHideFlags: 0
  m_CorrespondingSourceObject: {fileID: 0}
  m_PrefabInstance: {fileID: 0}
  m_PrefabAsset: {fileID: 0}
  m_GameObject: {fileID: 1231063494}
  m_Enabled: 1
--- !u!20 &1231063498
Camera:
  m_ObjectHideFlags: 0
  m_CorrespondingSourceObject: {fileID: 0}
  m_PrefabInstance: {fileID: 0}
  m_PrefabAsset: {fileID: 0}
  m_GameObject: {fileID: 1231063494}
  m_Enabled: 1
  serializedVersion: 2
  m_ClearFlags: 1
  m_BackGroundColor: {r: 0.19215687, g: 0.3019608, b: 0.4745098, a: 0.019607844}
  m_projectionMatrixMode: 1
  m_GateFitMode: 2
  m_FOVAxisMode: 0
  m_SensorSize: {x: 36, y: 24}
  m_LensShift: {x: 0, y: 0}
  m_FocalLength: 50
  m_NormalizedViewPortRect:
    serializedVersion: 2
    x: 0
    y: 0
    width: 1
    height: 1
  near clip plane: 0.3
  far clip plane: 1000
  field of view: 60
  orthographic: 0
  orthographic size: 5
  m_Depth: -1
  m_CullingMask:
    serializedVersion: 2
    m_Bits: 4294967295
  m_RenderingPath: -1
  m_TargetTexture: {fileID: 0}
  m_TargetDisplay: 0
  m_TargetEye: 3
  m_HDR: 0
  m_AllowMSAA: 1
  m_AllowDynamicResolution: 0
  m_ForceIntoRT: 0
  m_OcclusionCulling: 1
  m_StereoConvergence: 10
  m_StereoSeparation: 0.022
--- !u!4 &1231063499
Transform:
  m_ObjectHideFlags: 0
  m_CorrespondingSourceObject: {fileID: 0}
  m_PrefabInstance: {fileID: 0}
  m_PrefabAsset: {fileID: 0}
  m_GameObject: {fileID: 1231063494}
  m_LocalRotation: {x: 0.033877444, y: 0.93771255, z: 0.0956983, w: -0.33224893}
  m_LocalPosition: {x: 6.3359566, y: 10.088625, z: 15.497612}
  m_LocalScale: {x: 1, y: 1, z: 1}
  m_ConstrainProportionsScale: 0
  m_Children: []
  m_Father: {fileID: 0}
  m_RootOrder: 0
  m_LocalEulerAnglesHint: {x: 0, y: 0, z: 0}
--- !u!4 &1320198994 stripped
Transform:
  m_CorrespondingSourceObject: {fileID: 400000, guid: 09062dc0008857b46aaacdb7206f1453, type: 3}
  m_PrefabInstance: {fileID: 1368919842}
  m_PrefabAsset: {fileID: 0}
--- !u!4 &1321658256 stripped
Transform:
  m_CorrespondingSourceObject: {fileID: 400000, guid: 420bde364644a314396dc8ed24ee99d6, type: 3}
  m_PrefabInstance: {fileID: 1707443518}
  m_PrefabAsset: {fileID: 0}
--- !u!1001 &1368919842
PrefabInstance:
  m_ObjectHideFlags: 0
  serializedVersion: 2
  m_Modification:
    serializedVersion: 2
    m_TransformParent: {fileID: 1060060855}
    m_Modifications:
    - target: {fileID: 400000, guid: 09062dc0008857b46aaacdb7206f1453, type: 3}
      propertyPath: m_RootOrder
      value: 17
      objectReference: {fileID: 0}
    - target: {fileID: 400000, guid: 09062dc0008857b46aaacdb7206f1453, type: 3}
      propertyPath: m_RootMapOrder
      value: 
      objectReference: {fileID: 0}
    - target: {fileID: 400000, guid: 09062dc0008857b46aaacdb7206f1453, type: 3}
      propertyPath: m_LocalPosition.x
      value: -122.381744
      objectReference: {fileID: 0}
    - target: {fileID: 400000, guid: 09062dc0008857b46aaacdb7206f1453, type: 3}
      propertyPath: m_LocalPosition.y
      value: 12.7254257
      objectReference: {fileID: 0}
    - target: {fileID: 400000, guid: 09062dc0008857b46aaacdb7206f1453, type: 3}
      propertyPath: m_LocalPosition.z
      value: -135.828537
      objectReference: {fileID: 0}
    - target: {fileID: 400000, guid: 09062dc0008857b46aaacdb7206f1453, type: 3}
      propertyPath: m_LocalRotation.w
      value: 1
      objectReference: {fileID: 0}
    - target: {fileID: 400000, guid: 09062dc0008857b46aaacdb7206f1453, type: 3}
      propertyPath: m_LocalRotation.x
      value: 0
      objectReference: {fileID: 0}
    - target: {fileID: 400000, guid: 09062dc0008857b46aaacdb7206f1453, type: 3}
      propertyPath: m_LocalRotation.y
      value: 0
      objectReference: {fileID: 0}
    - target: {fileID: 400000, guid: 09062dc0008857b46aaacdb7206f1453, type: 3}
      propertyPath: m_LocalRotation.z
      value: 0
      objectReference: {fileID: 0}
    m_RemovedComponents: []
    m_AddedGameObjects: []
  m_SourcePrefab: {fileID: 100100000, guid: 09062dc0008857b46aaacdb7206f1453, type: 3}
--- !u!4 &1475644166 stripped
Transform:
  m_CorrespondingSourceObject: {fileID: 400000, guid: c2391e8a6bdf5424194b61e41952a40a, type: 3}
  m_PrefabInstance: {fileID: 1118490807}
  m_PrefabAsset: {fileID: 0}
--- !u!4 &1480057350 stripped
Transform:
  m_CorrespondingSourceObject: {fileID: 400000, guid: 2df72ec125264584faa40cb1beef0481, type: 3}
  m_PrefabInstance: {fileID: 1508582321}
  m_PrefabAsset: {fileID: 0}
--- !u!1001 &1508582321
PrefabInstance:
  m_ObjectHideFlags: 0
  serializedVersion: 2
  m_Modification:
    serializedVersion: 2
    m_TransformParent: {fileID: 1060060855}
    m_Modifications:
    - target: {fileID: 400000, guid: 2df72ec125264584faa40cb1beef0481, type: 3}
      propertyPath: m_RootOrder
      value: 19
      objectReference: {fileID: 0}
    - target: {fileID: 400000, guid: 2df72ec125264584faa40cb1beef0481, type: 3}
      propertyPath: m_RootMapOrder
      value: 
      objectReference: {fileID: 0}
    - target: {fileID: 400000, guid: 2df72ec125264584faa40cb1beef0481, type: 3}
      propertyPath: m_LocalPosition.x
      value: -155.610519
      objectReference: {fileID: 0}
    - target: {fileID: 400000, guid: 2df72ec125264584faa40cb1beef0481, type: 3}
      propertyPath: m_LocalPosition.y
      value: 12.7254257
      objectReference: {fileID: 0}
    - target: {fileID: 400000, guid: 2df72ec125264584faa40cb1beef0481, type: 3}
      propertyPath: m_LocalPosition.z
      value: 145.014328
      objectReference: {fileID: 0}
    - target: {fileID: 400000, guid: 2df72ec125264584faa40cb1beef0481, type: 3}
      propertyPath: m_LocalRotation.w
      value: 1
      objectReference: {fileID: 0}
    - target: {fileID: 400000, guid: 2df72ec125264584faa40cb1beef0481, type: 3}
      propertyPath: m_LocalRotation.x
      value: 0
      objectReference: {fileID: 0}
    - target: {fileID: 400000, guid: 2df72ec125264584faa40cb1beef0481, type: 3}
      propertyPath: m_LocalRotation.y
      value: 0
      objectReference: {fileID: 0}
    - target: {fileID: 400000, guid: 2df72ec125264584faa40cb1beef0481, type: 3}
      propertyPath: m_LocalRotation.z
      value: 0
      objectReference: {fileID: 0}
    m_RemovedComponents: []
    m_AddedGameObjects: []
  m_SourcePrefab: {fileID: 100100000, guid: 2df72ec125264584faa40cb1beef0481, type: 3}
--- !u!1001 &1558837210
PrefabInstance:
  m_ObjectHideFlags: 0
  serializedVersion: 2
  m_Modification:
    serializedVersion: 2
    m_TransformParent: {fileID: 1060060855}
    m_Modifications:
    - target: {fileID: 400000, guid: 420bde364644a314396dc8ed24ee99d6, type: 3}
      propertyPath: m_RootOrder
      value: 13
      objectReference: {fileID: 0}
    - target: {fileID: 400000, guid: 420bde364644a314396dc8ed24ee99d6, type: 3}
      propertyPath: m_RootMapOrder
      value: 
      objectReference: {fileID: 0}
    - target: {fileID: 400000, guid: 420bde364644a314396dc8ed24ee99d6, type: 3}
      propertyPath: m_LocalPosition.x
      value: 70.2497711
      objectReference: {fileID: 0}
    - target: {fileID: 400000, guid: 420bde364644a314396dc8ed24ee99d6, type: 3}
      propertyPath: m_LocalPosition.y
      value: 12.7254257
      objectReference: {fileID: 0}
    - target: {fileID: 400000, guid: 420bde364644a314396dc8ed24ee99d6, type: 3}
      propertyPath: m_LocalPosition.z
      value: -106.759872
      objectReference: {fileID: 0}
    - target: {fileID: 400000, guid: 420bde364644a314396dc8ed24ee99d6, type: 3}
      propertyPath: m_LocalRotation.w
      value: -4.37113883e-08
      objectReference: {fileID: 0}
    - target: {fileID: 400000, guid: 420bde364644a314396dc8ed24ee99d6, type: 3}
      propertyPath: m_LocalRotation.x
      value: 0
      objectReference: {fileID: 0}
    - target: {fileID: 400000, guid: 420bde364644a314396dc8ed24ee99d6, type: 3}
      propertyPath: m_LocalRotation.y
      value: 1
      objectReference: {fileID: 0}
    - target: {fileID: 400000, guid: 420bde364644a314396dc8ed24ee99d6, type: 3}
      propertyPath: m_LocalRotation.z
      value: 0
      objectReference: {fileID: 0}
    m_RemovedComponents: []
    m_AddedGameObjects: []
  m_SourcePrefab: {fileID: 100100000, guid: 420bde364644a314396dc8ed24ee99d6, type: 3}
--- !u!1001 &1681125103
PrefabInstance:
  m_ObjectHideFlags: 0
  serializedVersion: 2
  m_Modification:
    serializedVersion: 2
    m_TransformParent: {fileID: 1060060855}
    m_Modifications:
    - target: {fileID: 400000, guid: 420bde364644a314396dc8ed24ee99d6, type: 3}
      propertyPath: m_RootOrder
      value: 7
      objectReference: {fileID: 0}
    - target: {fileID: 400000, guid: 420bde364644a314396dc8ed24ee99d6, type: 3}
      propertyPath: m_RootMapOrder
      value: 
      objectReference: {fileID: 0}
    - target: {fileID: 400000, guid: 420bde364644a314396dc8ed24ee99d6, type: 3}
      propertyPath: m_LocalPosition.x
      value: -.54725647
      objectReference: {fileID: 0}
    - target: {fileID: 400000, guid: 420bde364644a314396dc8ed24ee99d6, type: 3}
      propertyPath: m_LocalPosition.y
      value: 12.7254257
      objectReference: {fileID: 0}
    - target: {fileID: 400000, guid: 420bde364644a314396dc8ed24ee99d6, type: 3}
      propertyPath: m_LocalPosition.z
      value: -78.5123901
      objectReference: {fileID: 0}
    - target: {fileID: 400000, guid: 420bde364644a314396dc8ed24ee99d6, type: 3}
      propertyPath: m_LocalRotation.w
      value: 1
      objectReference: {fileID: 0}
    - target: {fileID: 400000, guid: 420bde364644a314396dc8ed24ee99d6, type: 3}
      propertyPath: m_LocalRotation.x
      value: 0
      objectReference: {fileID: 0}
    - target: {fileID: 400000, guid: 420bde364644a314396dc8ed24ee99d6, type: 3}
      propertyPath: m_LocalRotation.y
      value: 0
      objectReference: {fileID: 0}
    - target: {fileID: 400000, guid: 420bde364644a314396dc8ed24ee99d6, type: 3}
      propertyPath: m_LocalRotation.z
      value: 0
      objectReference: {fileID: 0}
    m_RemovedComponents: []
    m_AddedGameObjects: []
  m_SourcePrefab: {fileID: 100100000, guid: 420bde364644a314396dc8ed24ee99d6, type: 3}
--- !u!1001 &1707443518
PrefabInstance:
  m_ObjectHideFlags: 0
  serializedVersion: 2
  m_Modification:
    serializedVersion: 2
    m_TransformParent: {fileID: 1060060855}
    m_Modifications:
    - target: {fileID: 400000, guid: 420bde364644a314396dc8ed24ee99d6, type: 3}
      propertyPath: m_RootOrder
      value: 20
      objectReference: {fileID: 0}
    - target: {fileID: 400000, guid: 420bde364644a314396dc8ed24ee99d6, type: 3}
      propertyPath: m_RootMapOrder
      value: 
      objectReference: {fileID: 0}
    - target: {fileID: 400000, guid: 420bde364644a314396dc8ed24ee99d6, type: 3}
      propertyPath: m_LocalPosition.x
      value: -27.5237827
      objectReference: {fileID: 0}
    - target: {fileID: 400000, guid: 420bde364644a314396dc8ed24ee99d6, type: 3}
      propertyPath: m_LocalPosition.y
      value: 12.7254257
      objectReference: {fileID: 0}
    - target: {fileID: 400000, guid: 420bde364644a314396dc8ed24ee99d6, type: 3}
      propertyPath: m_LocalPosition.z
      value: 262.854065
      objectReference: {fileID: 0}
    - target: {fileID: 400000, guid: 420bde364644a314396dc8ed24ee99d6, type: 3}
      propertyPath: m_LocalRotation.w
      value: 1
      objectReference: {fileID: 0}
    - target: {fileID: 400000, guid: 420bde364644a314396dc8ed24ee99d6, type: 3}
      propertyPath: m_LocalRotation.x
      value: 0
      objectReference: {fileID: 0}
    - target: {fileID: 400000, guid: 420bde364644a314396dc8ed24ee99d6, type: 3}
      propertyPath: m_LocalRotation.y
      value: 0
      objectReference: {fileID: 0}
    - target: {fileID: 400000, guid: 420bde364644a314396dc8ed24ee99d6, type: 3}
      propertyPath: m_LocalRotation.z
      value: 0
      objectReference: {fileID: 0}
    m_RemovedComponents: []
    m_AddedGameObjects: []
  m_SourcePrefab: {fileID: 100100000, guid: 420bde364644a314396dc8ed24ee99d6, type: 3}
--- !u!1001 &1707876515
PrefabInstance:
  m_ObjectHideFlags: 0
  serializedVersion: 2
  m_Modification:
    serializedVersion: 2
    m_TransformParent: {fileID: 1060060855}
    m_Modifications:
    - target: {fileID: 400000, guid: 09062dc0008857b46aaacdb7206f1453, type: 3}
      propertyPath: m_RootOrder
      value: 6
      objectReference: {fileID: 0}
    - target: {fileID: 400000, guid: 09062dc0008857b46aaacdb7206f1453, type: 3}
      propertyPath: m_RootMapOrder
      value: 
      objectReference: {fileID: 0}
    - target: {fileID: 400000, guid: 09062dc0008857b46aaacdb7206f1453, type: 3}
      propertyPath: m_LocalPosition.x
      value: -73.0769196
      objectReference: {fileID: 0}
    - target: {fileID: 400000, guid: 09062dc0008857b46aaacdb7206f1453, type: 3}
      propertyPath: m_LocalPosition.y
      value: 12.7254257
      objectReference: {fileID: 0}
    - target: {fileID: 400000, guid: 09062dc0008857b46aaacdb7206f1453, type: 3}
      propertyPath: m_LocalPosition.z
      value: -50.9985619
      objectReference: {fileID: 0}
    - target: {fileID: 400000, guid: 09062dc0008857b46aaacdb7206f1453, type: 3}
      propertyPath: m_LocalRotation.w
      value: 1
      objectReference: {fileID: 0}
    - target: {fileID: 400000, guid: 09062dc0008857b46aaacdb7206f1453, type: 3}
      propertyPath: m_LocalRotation.x
      value: 0
      objectReference: {fileID: 0}
    - target: {fileID: 400000, guid: 09062dc0008857b46aaacdb7206f1453, type: 3}
      propertyPath: m_LocalRotation.y
      value: 0
      objectReference: {fileID: 0}
    - target: {fileID: 400000, guid: 09062dc0008857b46aaacdb7206f1453, type: 3}
      propertyPath: m_LocalRotation.z
      value: 0
      objectReference: {fileID: 0}
    m_RemovedComponents: []
    m_AddedGameObjects: []
  m_SourcePrefab: {fileID: 100100000, guid: 09062dc0008857b46aaacdb7206f1453, type: 3}
--- !u!1001 &1712828361
PrefabInstance:
  m_ObjectHideFlags: 0
  serializedVersion: 2
  m_Modification:
    serializedVersion: 2
    m_TransformParent: {fileID: 1060060855}
    m_Modifications:
    - target: {fileID: 400000, guid: c2391e8a6bdf5424194b61e41952a40a, type: 3}
      propertyPath: m_RootOrder
      value: 1
      objectReference: {fileID: 0}
    - target: {fileID: 400000, guid: c2391e8a6bdf5424194b61e41952a40a, type: 3}
      propertyPath: m_RootMapOrder
      value: 
      objectReference: {fileID: 0}
    - target: {fileID: 400000, guid: c2391e8a6bdf5424194b61e41952a40a, type: 3}
      propertyPath: m_LocalPosition.x
      value: 61.412487
      objectReference: {fileID: 0}
    - target: {fileID: 400000, guid: c2391e8a6bdf5424194b61e41952a40a, type: 3}
      propertyPath: m_LocalPosition.y
      value: 12.7254257
      objectReference: {fileID: 0}
    - target: {fileID: 400000, guid: c2391e8a6bdf5424194b61e41952a40a, type: 3}
      propertyPath: m_LocalPosition.z
      value: -.687088013
      objectReference: {fileID: 0}
    - target: {fileID: 400000, guid: c2391e8a6bdf5424194b61e41952a40a, type: 3}
      propertyPath: m_LocalRotation.w
      value: 1
      objectReference: {fileID: 0}
    - target: {fileID: 400000, guid: c2391e8a6bdf5424194b61e41952a40a, type: 3}
      propertyPath: m_LocalRotation.x
      value: 0
      objectReference: {fileID: 0}
    - target: {fileID: 400000, guid: c2391e8a6bdf5424194b61e41952a40a, type: 3}
      propertyPath: m_LocalRotation.y
      value: 0
      objectReference: {fileID: 0}
    - target: {fileID: 400000, guid: c2391e8a6bdf5424194b61e41952a40a, type: 3}
      propertyPath: m_LocalRotation.z
      value: 0
      objectReference: {fileID: 0}
    m_RemovedComponents: []
    m_AddedGameObjects: []
  m_SourcePrefab: {fileID: 100100000, guid: c2391e8a6bdf5424194b61e41952a40a, type: 3}
--- !u!4 &1718518675 stripped
Transform:
  m_CorrespondingSourceObject: {fileID: 400000, guid: 73ef0b63ffe19f94ab35e4475b345d70, type: 3}
  m_PrefabInstance: {fileID: 90850080}
  m_PrefabAsset: {fileID: 0}
--- !u!4 &1776389595 stripped
Transform:
  m_CorrespondingSourceObject: {fileID: 400000, guid: 09062dc0008857b46aaacdb7206f1453, type: 3}
  m_PrefabInstance: {fileID: 1707876515}
  m_PrefabAsset: {fileID: 0}
--- !u!4 &1803785030 stripped
Transform:
  m_CorrespondingSourceObject: {fileID: 400000, guid: c2391e8a6bdf5424194b61e41952a40a, type: 3}
  m_PrefabInstance: {fileID: 1995527009}
  m_PrefabAsset: {fileID: 0}
--- !u!4 &1903391692 stripped
Transform:
  m_CorrespondingSourceObject: {fileID: 400000, guid: 420bde364644a314396dc8ed24ee99d6, type: 3}
  m_PrefabInstance: {fileID: 1681125103}
  m_PrefabAsset: {fileID: 0}
--- !u!1001 &1934202818
PrefabInstance:
  m_ObjectHideFlags: 0
  serializedVersion: 2
  m_Modification:
    serializedVersion: 2
    m_TransformParent: {fileID: 1060060855}
    m_Modifications:
    - target: {fileID: 400000, guid: 2df72ec125264584faa40cb1beef0481, type: 3}
      propertyPath: m_RootOrder
      value: 14
      objectReference: {fileID: 0}
    - target: {fileID: 400000, guid: 2df72ec125264584faa40cb1beef0481, type: 3}
      propertyPath: m_RootMapOrder
      value: 
      objectReference: {fileID: 0}
    - target: {fileID: 400000, guid: 2df72ec125264584faa40cb1beef0481, type: 3}
      propertyPath: m_LocalPosition.x
      value: -37.1323204
      objectReference: {fileID: 0}
    - target: {fileID: 400000, guid: 2df72ec125264584faa40cb1beef0481, type: 3}
      propertyPath: m_LocalPosition.y
      value: 12.7254257
      objectReference: {fileID: 0}
    - target: {fileID: 400000, guid: 2df72ec125264584faa40cb1beef0481, type: 3}
      propertyPath: m_LocalPosition.z
      value: 24.8611813
      objectReference: {fileID: 0}
    - target: {fileID: 400000, guid: 2df72ec125264584faa40cb1beef0481, type: 3}
      propertyPath: m_LocalRotation.w
      value: 1
      objectReference: {fileID: 0}
    - target: {fileID: 400000, guid: 2df72ec125264584faa40cb1beef0481, type: 3}
      propertyPath: m_LocalRotation.x
      value: 0
      objectReference: {fileID: 0}
    - target: {fileID: 400000, guid: 2df72ec125264584faa40cb1beef0481, type: 3}
      propertyPath: m_LocalRotation.y
      value: 0
      objectReference: {fileID: 0}
    - target: {fileID: 400000, guid: 2df72ec125264584faa40cb1beef0481, type: 3}
      propertyPath: m_LocalRotation.z
      value: 0
      objectReference: {fileID: 0}
    m_RemovedComponents: []
    m_AddedGameObjects: []
  m_SourcePrefab: {fileID: 100100000, guid: 2df72ec125264584faa40cb1beef0481, type: 3}
--- !u!1001 &1938014849
PrefabInstance:
  m_ObjectHideFlags: 0
  serializedVersion: 2
  m_Modification:
    serializedVersion: 2
    m_TransformParent: {fileID: 1060060855}
    m_Modifications:
    - target: {fileID: 400000, guid: 2df72ec125264584faa40cb1beef0481, type: 3}
      propertyPath: m_RootOrder
      value: 8
      objectReference: {fileID: 0}
    - target: {fileID: 400000, guid: 2df72ec125264584faa40cb1beef0481, type: 3}
      propertyPath: m_RootMapOrder
      value: 
      objectReference: {fileID: 0}
    - target: {fileID: 400000, guid: 2df72ec125264584faa40cb1beef0481, type: 3}
      propertyPath: m_LocalPosition.x
      value: 16.3775177
      objectReference: {fileID: 0}
    - target: {fileID: 400000, guid: 2df72ec125264584faa40cb1beef0481, type: 3}
      propertyPath: m_LocalPosition.y
      value: 12.7254257
      objectReference: {fileID: 0}
    - target: {fileID: 400000, guid: 2df72ec125264584faa40cb1beef0481, type: 3}
      propertyPath: m_LocalPosition.z
      value: 95.95784
      objectReference: {fileID: 0}
    - target: {fileID: 400000, guid: 2df72ec125264584faa40cb1beef0481, type: 3}
      propertyPath: m_LocalRotation.w
      value: 1
      objectReference: {fileID: 0}
    - target: {fileID: 400000, guid: 2df72ec125264584faa40cb1beef0481, type: 3}
      propertyPath: m_LocalRotation.x
      value: 0
      objectReference: {fileID: 0}
    - target: {fileID: 400000, guid: 2df72ec125264584faa40cb1beef0481, type: 3}
      propertyPath: m_LocalRotation.y
      value: 0
      objectReference: {fileID: 0}
    - target: {fileID: 400000, guid: 2df72ec125264584faa40cb1beef0481, type: 3}
      propertyPath: m_LocalRotation.z
      value: 0
      objectReference: {fileID: 0}
    m_RemovedComponents: []
    m_AddedGameObjects: []
  m_SourcePrefab: {fileID: 100100000, guid: 2df72ec125264584faa40cb1beef0481, type: 3}
--- !u!1001 &1980259559
PrefabInstance:
  m_ObjectHideFlags: 0
  serializedVersion: 2
  m_Modification:
    serializedVersion: 2
    m_TransformParent: {fileID: 1060060855}
    m_Modifications:
    - target: {fileID: 400000, guid: c37b1ccfbc7ed274eb99f9d40e72c4e6, type: 3}
      propertyPath: m_RootOrder
      value: 11
      objectReference: {fileID: 0}
    - target: {fileID: 400000, guid: c37b1ccfbc7ed274eb99f9d40e72c4e6, type: 3}
      propertyPath: m_RootMapOrder
      value: 
      objectReference: {fileID: 0}
    - target: {fileID: 400000, guid: c37b1ccfbc7ed274eb99f9d40e72c4e6, type: 3}
      propertyPath: m_LocalPosition.x
      value: 3.41170192
      objectReference: {fileID: 0}
    - target: {fileID: 400000, guid: c37b1ccfbc7ed274eb99f9d40e72c4e6, type: 3}
      propertyPath: m_LocalPosition.y
      value: 12.7254257
      objectReference: {fileID: 0}
    - target: {fileID: 400000, guid: c37b1ccfbc7ed274eb99f9d40e72c4e6, type: 3}
      propertyPath: m_LocalPosition.z
      value: 4.13794327
      objectReference: {fileID: 0}
    - target: {fileID: 400000, guid: c37b1ccfbc7ed274eb99f9d40e72c4e6, type: 3}
      propertyPath: m_LocalRotation.w
      value: 1
      objectReference: {fileID: 0}
    - target: {fileID: 400000, guid: c37b1ccfbc7ed274eb99f9d40e72c4e6, type: 3}
      propertyPath: m_LocalRotation.x
      value: 0
      objectReference: {fileID: 0}
    - target: {fileID: 400000, guid: c37b1ccfbc7ed274eb99f9d40e72c4e6, type: 3}
      propertyPath: m_LocalRotation.y
      value: 0
      objectReference: {fileID: 0}
    - target: {fileID: 400000, guid: c37b1ccfbc7ed274eb99f9d40e72c4e6, type: 3}
      propertyPath: m_LocalRotation.z
      value: 0
      objectReference: {fileID: 0}
    m_RemovedComponents: []
    m_AddedGameObjects: []
  m_SourcePrefab: {fileID: 100100000, guid: c37b1ccfbc7ed274eb99f9d40e72c4e6, type: 3}
--- !u!1001 &1995527009
PrefabInstance:
  m_ObjectHideFlags: 0
  serializedVersion: 2
  m_Modification:
    serializedVersion: 2
    m_TransformParent: {fileID: 1060060855}
    m_Modifications:
    - target: {fileID: 400000, guid: c2391e8a6bdf5424194b61e41952a40a, type: 3}
      propertyPath: m_RootOrder
      value: 9
      objectReference: {fileID: 0}
    - target: {fileID: 400000, guid: c2391e8a6bdf5424194b61e41952a40a, type: 3}
      propertyPath: m_RootMapOrder
      value: 
      objectReference: {fileID: 0}
    - target: {fileID: 400000, guid: c2391e8a6bdf5424194b61e41952a40a, type: 3}
      propertyPath: m_LocalPosition.x
      value: -27.900116
      objectReference: {fileID: 0}
    - target: {fileID: 400000, guid: c2391e8a6bdf5424194b61e41952a40a, type: 3}
      propertyPath: m_LocalPosition.y
      value: 12.7254257
      objectReference: {fileID: 0}
    - target: {fileID: 400000, guid: c2391e8a6bdf5424194b61e41952a40a, type: 3}
      propertyPath: m_LocalPosition.z
      value: 9.85910416
      objectReference: {fileID: 0}
    - target: {fileID: 400000, guid: c2391e8a6bdf5424194b61e41952a40a, type: 3}
      propertyPath: m_LocalRotation.w
      value: 1
      objectReference: {fileID: 0}
    - target: {fileID: 400000, guid: c2391e8a6bdf5424194b61e41952a40a, type: 3}
      propertyPath: m_LocalRotation.x
      value: 0
      objectReference: {fileID: 0}
    - target: {fileID: 400000, guid: c2391e8a6bdf5424194b61e41952a40a, type: 3}
      propertyPath: m_LocalRotation.y
      value: 0
      objectReference: {fileID: 0}
    - target: {fileID: 400000, guid: c2391e8a6bdf5424194b61e41952a40a, type: 3}
      propertyPath: m_LocalRotation.z
      value: 0
      objectReference: {fileID: 0}
    m_RemovedComponents: []
    m_AddedGameObjects: []
  m_SourcePrefab: {fileID: 100100000, guid: c2391e8a6bdf5424194b61e41952a40a, type: 3}
--- !u!4 &2045703863 stripped
Transform:
  m_CorrespondingSourceObject: {fileID: 400000, guid: c2391e8a6bdf5424194b61e41952a40a, type: 3}
  m_PrefabInstance: {fileID: 918009634}
  m_PrefabAsset: {fileID: 0}
--- !u!1001 &2098064291
PrefabInstance:
  m_ObjectHideFlags: 0
  serializedVersion: 2
  m_Modification:
    serializedVersion: 2
    m_TransformParent: {fileID: 1060060855}
    m_Modifications:
    - target: {fileID: 400000, guid: 2df72ec125264584faa40cb1beef0481, type: 3}
      propertyPath: m_RootOrder
      value: 15
      objectReference: {fileID: 0}
    - target: {fileID: 400000, guid: 2df72ec125264584faa40cb1beef0481, type: 3}
      propertyPath: m_RootMapOrder
      value: 
      objectReference: {fileID: 0}
    - target: {fileID: 400000, guid: 2df72ec125264584faa40cb1beef0481, type: 3}
      propertyPath: m_LocalPosition.x
      value: 128.606247
      objectReference: {fileID: 0}
    - target: {fileID: 400000, guid: 2df72ec125264584faa40cb1beef0481, type: 3}
      propertyPath: m_LocalPosition.y
      value: 12.7254257
      objectReference: {fileID: 0}
    - target: {fileID: 400000, guid: 2df72ec125264584faa40cb1beef0481, type: 3}
      propertyPath: m_LocalPosition.z
      value: 10.0943604
      objectReference: {fileID: 0}
    - target: {fileID: 400000, guid: 2df72ec125264584faa40cb1beef0481, type: 3}
      propertyPath: m_LocalRotation.w
      value: 1
      objectReference: {fileID: 0}
    - target: {fileID: 400000, guid: 2df72ec125264584faa40cb1beef0481, type: 3}
      propertyPath: m_LocalRotation.x
      value: 0
      objectReference: {fileID: 0}
    - target: {fileID: 400000, guid: 2df72ec125264584faa40cb1beef0481, type: 3}
      propertyPath: m_LocalRotation.y
      value: 0
      objectReference: {fileID: 0}
    - target: {fileID: 400000, guid: 2df72ec125264584faa40cb1beef0481, type: 3}
      propertyPath: m_LocalRotation.z
      value: 0
      objectReference: {fileID: 0}
    m_RemovedComponents: []
    m_AddedGameObjects: []
  m_SourcePrefab: {fileID: 100100000, guid: 2df72ec125264584faa40cb1beef0481, type: 3}
--- !u!1001 &2133336824
PrefabInstance:
  m_ObjectHideFlags: 0
  serializedVersion: 2
  m_Modification:
    serializedVersion: 2
    m_TransformParent: {fileID: 1060060855}
    m_Modifications:
    - target: {fileID: 400000, guid: c37b1ccfbc7ed274eb99f9d40e72c4e6, type: 3}
      propertyPath: m_RootOrder
      value: 16
      objectReference: {fileID: 0}
    - target: {fileID: 400000, guid: c37b1ccfbc7ed274eb99f9d40e72c4e6, type: 3}
      propertyPath: m_RootMapOrder
      value: 
      objectReference: {fileID: 0}
    - target: {fileID: 400000, guid: c37b1ccfbc7ed274eb99f9d40e72c4e6, type: 3}
      propertyPath: m_LocalPosition.x
      value: 32.9661369
      objectReference: {fileID: 0}
    - target: {fileID: 400000, guid: c37b1ccfbc7ed274eb99f9d40e72c4e6, type: 3}
      propertyPath: m_LocalPosition.y
      value: 12.7254257
      objectReference: {fileID: 0}
    - target: {fileID: 400000, guid: c37b1ccfbc7ed274eb99f9d40e72c4e6, type: 3}
      propertyPath: m_LocalPosition.z
      value: 4.33670282
      objectReference: {fileID: 0}
    - target: {fileID: 400000, guid: c37b1ccfbc7ed274eb99f9d40e72c4e6, type: 3}
      propertyPath: m_LocalRotation.w
      value: 1
      objectReference: {fileID: 0}
    - target: {fileID: 400000, guid: c37b1ccfbc7ed274eb99f9d40e72c4e6, type: 3}
      propertyPath: m_LocalRotation.x
      value: 0
      objectReference: {fileID: 0}
    - target: {fileID: 400000, guid: c37b1ccfbc7ed274eb99f9d40e72c4e6, type: 3}
      propertyPath: m_LocalRotation.y
      value: 0
      objectReference: {fileID: 0}
    - target: {fileID: 400000, guid: c37b1ccfbc7ed274eb99f9d40e72c4e6, type: 3}
      propertyPath: m_LocalRotation.z
      value: 0
      objectReference: {fileID: 0}
    m_RemovedComponents: []
    m_AddedGameObjects: []
  m_SourcePrefab: {fileID: 100100000, guid: c37b1ccfbc7ed274eb99f9d40e72c4e6, type: 3}
