%YAML 1.1
%TAG !u! tag:unity3d.com,2011:
--- !u!1 &1663024617394251485
GameObject:
  m_ObjectHideFlags: 0
  m_CorrespondingSourceObject: {fileID: 0}
  m_PrefabInstance: {fileID: 0}
  m_PrefabAsset: {fileID: 0}
  serializedVersion: 6
  m_Component:
  - component: {fileID: 2667058949913452227}
  m_Layer: 0
  m_Name: Grass_var02
  m_TagString: Untagged
  m_Icon: {fileID: 0}
  m_NavMeshLayer: 0
  m_StaticEditorFlags: 0
  m_IsActive: 1
--- !u!4 &2667058949913452227
Transform:
  m_ObjectHideFlags: 0
  m_CorrespondingSourceObject: {fileID: 0}
  m_PrefabInstance: {fileID: 0}
  m_PrefabAsset: {fileID: 0}
  m_GameObject: {fileID: 1663024617394251485}
  m_LocalRotation: {x: 0, y: 0, z: 0, w: 1}
  m_LocalPosition: {x: 0, y: 0, z: 0}
  m_LocalScale: {x: 1, y: 1, z: 1}
  m_ConstrainProportionsScale: 0
  m_Children:
  - {fileID: 3036301277969066681}
  m_Father: {fileID: 0}
  m_RootOrder: 0
  m_LocalEulerAnglesHint: {x: 0, y: 0, z: 0}
--- !u!1001 &3290339749089529170
PrefabInstance:
  m_ObjectHideFlags: 0
  serializedVersion: 2
  m_Modification:
    serializedVersion: 2
    m_TransformParent: {fileID: 2667058949913452227}
    m_Modifications:
    - target: {fileID: -9146109003795052941, guid: bcee55aebcb6f57438f02a511869ed3a, type: 3}
      propertyPath: m_Materials.Array.data[0]
      value: 
      objectReference: {fileID: 2100000, guid: 2bfb7ce15b3e73c4c9b5743733858186, type: 2}
    - target: {fileID: -8679921383154817045, guid: bcee55aebcb6f57438f02a511869ed3a, type: 3}
      propertyPath: m_RootOrder
      value: -1
      objectReference: {fileID: 0}
    - target: {fileID: -8679921383154817045, guid: bcee55aebcb6f57438f02a511869ed3a, type: 3}
      propertyPath: m_LocalPosition.x
      value: 0
      objectReference: {fileID: 0}
    - target: {fileID: -8679921383154817045, guid: bcee55aebcb6f57438f02a511869ed3a, type: 3}
      propertyPath: m_LocalPosition.y
      value: 0
      objectReference: {fileID: 0}
    - target: {fileID: -8679921383154817045, guid: bcee55aebcb6f57438f02a511869ed3a, type: 3}
      propertyPath: m_LocalPosition.z
      value: 0
      objectReference: {fileID: 0}
    - target: {fileID: -8679921383154817045, guid: bcee55aebcb6f57438f02a511869ed3a, type: 3}
      propertyPath: m_LocalRotation.w
      value: 1
      objectReference: {fileID: 0}
    - target: {fileID: -8679921383154817045, guid: bcee55aebcb6f57438f02a511869ed3a, type: 3}
      propertyPath: m_LocalRotation.x
      value: -0
      objectReference: {fileID: 0}
    - target: {fileID: -8679921383154817045, guid: bcee55aebcb6f57438f02a511869ed3a, type: 3}
      propertyPath: m_LocalRotation.y
      value: -0
      objectReference: {fileID: 0}
    - target: {fileID: -8679921383154817045, guid: bcee55aebcb6f57438f02a511869ed3a, type: 3}
      propertyPath: m_LocalRotation.z
      value: -0
      objectReference: {fileID: 0}
    - target: {fileID: -8679921383154817045, guid: bcee55aebcb6f57438f02a511869ed3a, type: 3}
      propertyPath: m_LocalEulerAnglesHint.x
      value: 0
      objectReference: {fileID: 0}
    - target: {fileID: -8679921383154817045, guid: bcee55aebcb6f57438f02a511869ed3a, type: 3}
      propertyPath: m_LocalEulerAnglesHint.y
      value: 0
      objectReference: {fileID: 0}
    - target: {fileID: -8679921383154817045, guid: bcee55aebcb6f57438f02a511869ed3a, type: 3}
      propertyPath: m_LocalEulerAnglesHint.z
      value: 0
      objectReference: {fileID: 0}
    - target: {fileID: -7309311547855811857, guid: bcee55aebcb6f57438f02a511869ed3a, type: 3}
      propertyPath: m_Materials.Array.data[0]
      value: 
      objectReference: {fileID: 2100000, guid: 2bfb7ce15b3e73c4c9b5743733858186, type: 2}
    - target: {fileID: 420281975976972893, guid: bcee55aebcb6f57438f02a511869ed3a, type: 3}
      propertyPath: m_Materials.Array.data[0]
      value: 
      objectReference: {fileID: 2100000, guid: 2bfb7ce15b3e73c4c9b5743733858186, type: 2}
    - target: {fileID: 919132149155446097, guid: bcee55aebcb6f57438f02a511869ed3a, type: 3}
      propertyPath: m_Name
      value: grass_var02
      objectReference: {fileID: 0}
    - target: {fileID: 3305995554247657547, guid: bcee55aebcb6f57438f02a511869ed3a, type: 3}
      propertyPath: m_Materials.Array.data[0]
      value: 
      objectReference: {fileID: 2100000, guid: 2bfb7ce15b3e73c4c9b5743733858186, type: 2}
    - target: {fileID: 5134596786903458248, guid: bcee55aebcb6f57438f02a511869ed3a, type: 3}
      propertyPath: m_Materials.Array.data[0]
      value: 
      objectReference: {fileID: 2100000, guid: 2bfb7ce15b3e73c4c9b5743733858186, type: 2}
    - target: {fileID: 7087051574260438857, guid: bcee55aebcb6f57438f02a511869ed3a, type: 3}
      propertyPath: m_Materials.Array.data[0]
      value: 
      objectReference: {fileID: 2100000, guid: 2bfb7ce15b3e73c4c9b5743733858186, type: 2}
    - target: {fileID: 8647575589436175233, guid: bcee55aebcb6f57438f02a511869ed3a, type: 3}
      propertyPath: m_Materials.Array.data[0]
      value: 
      objectReference: {fileID: 2100000, guid: 2bfb7ce15b3e73c4c9b5743733858186, type: 2}
    - target: {fileID: 9190755855466239451, guid: bcee55aebcb6f57438f02a511869ed3a, type: 3}
      propertyPath: m_Materials.Array.data[0]
      value: 
      objectReference: {fileID: 2100000, guid: 2bfb7ce15b3e73c4c9b5743733858186, type: 2}
    m_RemovedComponents: []
    m_AddedGameObjects: []
  m_SourcePrefab: {fileID: 100100000, guid: bcee55aebcb6f57438f02a511869ed3a, type: 3}
--- !u!4 &3036301277969066681 stripped
Transform:
  m_CorrespondingSourceObject: {fileID: -8679921383154817045, guid: bcee55aebcb6f57438f02a511869ed3a, type: 3}
  m_PrefabInstance: {fileID: 3290339749089529170}
  m_PrefabAsset: {fileID: 0}
